[
  {
    "text": "\u0386\u03bd\u03c4\u03b5 \u03c0\u03ac\u03bc\u03b5",
    "intent": "greetings",
    "intent_prediction": {
      "name": "goodbye",
      "confidence": 0.2094610631465912
    }
  },
  {
    "text": "\u0386\u03bd\u03c4\u03b5 \u03c0\u03b1\u03bc\u03b5",
    "intent": "greetings",
    "intent_prediction": {
      "name": "goodbye",
      "confidence": 0.451402872800827
    }
  },
  {
    "text": "\u03a4\u03bf \u03ad\u03c7\u03c9 \u03ba\u03b1\u03c4\u03b1\u03bb\u03ac\u03b2\u03b5\u03b9",
    "intent": "affirmative",
    "intent_prediction": {
      "name": "didnt_understand",
      "confidence": 0.6130313873291016
    }
  },
  {
    "text": "\u0395, \u03ba\u03b1\u03b9 \u03b4\u03b5\u03bd \u03c4\u03b1 \u03bb\u03b5\u03c2;",
    "intent": "affirmative",
    "intent_prediction": {
      "name": "negative",
      "confidence": 0.6334866881370544
    }
  },
  {
    "text": "\u0398\u03b1 \u03b1\u03c0\u03b1\u03bd\u03c4\u03ae\u03c3\u03c9 \u03c3\u03b5 \u03b5\u03c1\u03c9\u03c4\u03ae\u03c3\u03b5\u03b9\u03c2 \u03c3\u03c7\u03b5\u03c4\u03b9\u03ba\u03ac \u03bc\u03b5 \u03c4\u03b7\u03bd \u03b5\u03bc\u03c0\u03b5\u03b9\u03c1\u03af\u03b1 \u03bc\u03bf\u03c5",
    "intent": "affirmative",
    "intent_prediction": {
      "name": "positive_feedback",
      "confidence": 0.2795531451702118
    }
  },
  {
    "text": "\u03a4\u03b9;",
    "intent": "affirmative",
    "intent_prediction": {
      "name": "ask_chitchat",
      "confidence": 0.6365927457809448
    }
  },
  {
    "text": "\u03b5;",
    "intent": "didnt_understand",
    "intent_prediction": {
      "name": "positive_feedback",
      "confidence": 0.3832550346851349
    }
  },
  {
    "text": "\u0395;",
    "intent": "didnt_understand",
    "intent_prediction": {
      "name": "positive_feedback",
      "confidence": 0.3832550346851349
    }
  },
  {
    "text": "\u03b4\u03b5\u03bd \u03b5\u03af\u03c3\u03b1\u03b9 \u03ba\u03b1\u03bb\u03ac",
    "intent": "insult",
    "intent_prediction": {
      "name": "negative",
      "confidence": 0.7944740653038025
    }
  },
  {
    "text": "\u039c\u03ac\u03bb\u03b9\u03c3\u03c4\u03b1",
    "intent": "positive_feedback",
    "intent_prediction": {
      "name": "affirmative",
      "confidence": 0.6875178217887878
    }
  },
  {
    "text": "\u03b1 \u03ba\u03b1\u03c4\u03ac\u03bb\u03b1\u03b2\u03b1",
    "intent": "positive_feedback",
    "intent_prediction": {
      "name": "affirmative",
      "confidence": 0.3857537508010864
    }
  },
  {
    "text": "\u038c\u03bb\u03b1 \u03ba\u03b1\u03bb\u03ac;",
    "intent": "ask_chitchat",
    "intent_prediction": {
      "name": "positive_feedback",
      "confidence": 0.6528836488723755
    }
  },
  {
    "text": "\u039f\u03bb\u03b1 \u03ba\u03b1\u03bb\u03b1;",
    "intent": "ask_chitchat",
    "intent_prediction": {
      "name": "positive_feedback",
      "confidence": 0.538019597530365
    }
  }
]